{
    "constructors": [
        {
            "annotations": [],
            "location": {
                "column": 12,
                "line": 5
            },
            "modifiers": [
                "public"
            ],
            "name": "IterationController",
            "parameters": [],
            "references": [],
            "type": null
        }
    ],
    "externalReferences": [],
    "id": "IterationController",
    "innerClasses": [],
    "interfaces": [],
    "key": "IterationController",
    "methods": [],
    "name": "IterationController",
    "namespace": null,
    "parentClass": "",
    "properties": [
        {
            "annotations": [],
            "location": {
                "column": 63,
                "line": 3
            },
            "modifiers": [
                "private"
            ],
            "name": "sObjectFieldMap",
            "references": [],
            "type": "Map"
        }
    ],
    "tableDeclaration": {
        "annotations": [],
        "location": {
            "column": 27,
            "line": 1
        },
        "modifiers": [
            "public",
            "with sharing"
        ],
        "name": "IterationController",
        "references": [],
        "type": "IterationController"
    },
    "variables": [
        {
            "annotations": [],
            "location": {
                "column": 38,
                "line": 6
            },
            "modifiers": [],
            "name": "accountDesc",
            "references": [],
            "type": "Schema.DescribeSObjectResult"
        },
        {
            "annotations": [],
            "location": {
                "column": 33,
                "line": 12
            },
            "modifiers": [],
            "name": "key",
            "references": [],
            "type": "Schema.SObjectType"
        }
    ]
}